<?xml version="1.0" encoding="UTF-8"?>
<graphml xmlns="http://graphml.graphdrawing.org/xmlns"
         xmlns:xsi="http://www.w3.org/2001/XMLSchema-instance"
         xsi:schemaLocation="http://graphml.graphdrawing.org/xmlns http://graphml.graphdrawing.org/xmlns/1.0/graphml.xsd">

  <!-- property keys -->
  <key id="key0" for="node" attr.name="alias" attr.type="string" />
  <key id="key1" for="node" attr.name="biopaxType" attr.type="string" />
  <key id="key2" for="node" attr.name="color" attr.type="string" />
  <key id="key3" for="edge" attr.name="color" attr.type="string" />
  <key id="key4" for="edge" attr.name="effect" attr.type="string" />
  <key id="key5" for="node" attr.name="entityType" attr.type="string" />
  <key id="key6" for="node" attr.name="generic" attr.type="string" />
  <key id="key7" for="node" attr.name="influenceType" attr.type="string" />
  <key id="key8" for="node" attr.name="input" attr.type="long" />
  <key id="key9" for="edge" attr.name="interaction" attr.type="string" />
  <key id="key10" for="node" attr.name="name" attr.type="string" />
  <key id="key11" for="node" attr.name="organism" attr.type="string" />
  <key id="key12" for="node" attr.name="provider" attr.type="string" />
  <key id="key13" for="node" attr.name="shape" attr.type="string" />
  <key id="key14" for="edge" attr.name="spaim" attr.type="string" />
  <key id="key15" for="node" attr.name="spaimCase" attr.type="string" />
  <key id="key16" for="node" attr.name="uniprot" attr.type="string" />
  <key id="key17" for="node" attr.name="uri" attr.type="string" />

  <graph id="G" edgedefault="directed" parse.nodeids="free" parse.edgeids="free" parse.order="nodesfirst">

   <!-- graph properties -->

   <!-- vertices -->
    <node id="1">
      <data key="key0">Presenilin;PSEN</data>
      <data key="key1">Complex</data>
      <data key="key2">darkcyan</data>
      <data key="key5">chemical</data>
      <data key="key6">true</data>
      <data key="key7">availability</data>
      <data key="key8">0</data>
      <data key="key10">PSEN</data>
      <data key="key11">Homo sapiens</data>
      <data key="key12">Reactome</data>
      <data key="key13">Octagon</data>
      <data key="key16">P49810;P49768</data>
      <data key="key17">http://www.reactome.org/biopax/72/3928656#Complex2</data>
    </node>
    <node id="2">
      <data key="key0">EPHB CTF1;EPHB C-terminal fragment 1</data>
      <data key="key1">Protein</data>
      <data key="key2">darkcyan</data>
      <data key="key5">chemical</data>
      <data key="key6">true</data>
      <data key="key7">availability</data>
      <data key="key8">0</data>
      <data key="key10">EPHB CTF1</data>
      <data key="key11">Homo sapiens</data>
      <data key="key12">Reactome</data>
      <data key="key13">Rectangle</data>
      <data key="key16">P54753;P29323;P54762;P54760;O15197</data>
      <data key="key17">http://www.reactome.org/biopax/72/3928656#Protein13</data>
    </node>
    <node id="3">
      <data key="key0">gamma-secretase complex</data>
      <data key="key1">Complex</data>
      <data key="key2">darkcyan</data>
      <data key="key5">chemical</data>
      <data key="key6">false</data>
      <data key="key7">availability</data>
      <data key="key8">0</data>
      <data key="key10">gamma-secretase complex</data>
      <data key="key11">Homo sapiens</data>
      <data key="key12">Reactome</data>
      <data key="key13">Octagon</data>
      <data key="key16">Q8WW43;Q9NZ42;P49810;Q92542;Q96BI3;P49768</data>
      <data key="key17">http://www.reactome.org/biopax/72/3928656#Complex1</data>
    </node>
    <node id="4">
      <data key="key0">EPHB C-terminal fragment 2;EPHB CTF2</data>
      <data key="key1">Protein</data>
      <data key="key2">darkcyan</data>
      <data key="key5">chemical</data>
      <data key="key6">true</data>
      <data key="key7">availability</data>
      <data key="key8">0</data>
      <data key="key10">EPHB CTF2</data>
      <data key="key11">Homo sapiens</data>
      <data key="key12">Reactome</data>
      <data key="key13">Rectangle</data>
      <data key="key16">P54753;P29323;P54762;P54760;O15197</data>
      <data key="key17">http://www.reactome.org/biopax/72/3928656#Protein7</data>
    </node>
    <node id="5">
      <data key="key0">gamma-secretase cleaves EPHB2</data>
      <data key="key1">BiochemicalReaction</data>
      <data key="key2">indigo</data>
      <data key="key5">reaction</data>
      <data key="key6">false</data>
      <data key="key7">reaction</data>
      <data key="key8">0</data>
      <data key="key10">gamma-secretase cleaves EPHB2</data>
      <data key="key12">Reactome</data>
      <data key="key13">Rectangle</data>
      <data key="key15">R2COMPLX</data>
      <data key="key17">http://www.reactome.org/biopax/72/3928656#BiochemicalReaction1</data>
    </node>
    <node id="6">
      <data key="key0">EPHB CTF;EPHB C-terminal fragments (CTF)</data>
      <data key="key1">Protein</data>
      <data key="key2">darkcyan</data>
      <data key="key5">chemical</data>
      <data key="key6">true</data>
      <data key="key7">availability</data>
      <data key="key8">0</data>
      <data key="key10">EPHB CTF</data>
      <data key="key11">Homo sapiens</data>
      <data key="key12">Reactome</data>
      <data key="key13">Rectangle</data>
      <data key="key16">P54753;P29323;P54762;P54760;O15197</data>
      <data key="key17">http://www.reactome.org/biopax/72/3928656#Protein1</data>
    </node>
    <node id="7">
      <data key="key1">ComplexAssembly</data>
      <data key="key2">indigo</data>
      <data key="key5">reaction</data>
      <data key="key6">false</data>
      <data key="key7">reaction</data>
      <data key="key8">0</data>
      <data key="key10">assembly of PSEN</data>
      <data key="key13">Rectangle</data>
      <data key="key15">R3COMPLX</data>
    </node>
    <node id="1Q">
      <data key="key0">Presenilin;PSEN</data>
      <data key="key1">Complex</data>
      <data key="key2">peru</data>
      <data key="key5">chemical</data>
      <data key="key6">true</data>
      <data key="key7">quantity</data>
      <data key="key8">0</data>
      <data key="key10">PSEN</data>
      <data key="key11">Homo sapiens</data>
      <data key="key12">Reactome</data>
      <data key="key13">Octagon</data>
      <data key="key16">P49810;P49768</data>
      <data key="key17">http://www.reactome.org/biopax/72/3928656#Complex2</data>
    </node>
    <node id="2Q">
      <data key="key0">EPHB CTF1;EPHB C-terminal fragment 1</data>
      <data key="key1">Protein</data>
      <data key="key2">peru</data>
      <data key="key5">chemical</data>
      <data key="key6">true</data>
      <data key="key7">quantity</data>
      <data key="key8">0</data>
      <data key="key10">EPHB CTF1</data>
      <data key="key11">Homo sapiens</data>
      <data key="key12">Reactome</data>
      <data key="key13">Rectangle</data>
      <data key="key16">P54753;P29323;P54762;P54760;O15197</data>
      <data key="key17">http://www.reactome.org/biopax/72/3928656#Protein13</data>
    </node>
    <node id="3Q">
      <data key="key0">gamma-secretase complex</data>
      <data key="key1">Complex</data>
      <data key="key2">peru</data>
      <data key="key5">chemical</data>
      <data key="key6">false</data>
      <data key="key7">quantity</data>
      <data key="key8">0</data>
      <data key="key10">gamma-secretase complex</data>
      <data key="key11">Homo sapiens</data>
      <data key="key12">Reactome</data>
      <data key="key13">Octagon</data>
      <data key="key16">Q8WW43;Q9NZ42;P49810;Q92542;Q96BI3;P49768</data>
      <data key="key17">http://www.reactome.org/biopax/72/3928656#Complex1</data>
    </node>
    <node id="4Q">
      <data key="key0">EPHB C-terminal fragment 2;EPHB CTF2</data>
      <data key="key1">Protein</data>
      <data key="key2">peru</data>
      <data key="key5">chemical</data>
      <data key="key6">true</data>
      <data key="key7">quantity</data>
      <data key="key8">0</data>
      <data key="key10">EPHB CTF2</data>
      <data key="key11">Homo sapiens</data>
      <data key="key12">Reactome</data>
      <data key="key13">Rectangle</data>
      <data key="key16">P54753;P29323;P54762;P54760;O15197</data>
      <data key="key17">http://www.reactome.org/biopax/72/3928656#Protein7</data>
    </node>
    <node id="6Q">
      <data key="key0">EPHB CTF;EPHB C-terminal fragments (CTF)</data>
      <data key="key1">Protein</data>
      <data key="key2">peru</data>
      <data key="key5">chemical</data>
      <data key="key6">true</data>
      <data key="key7">quantity</data>
      <data key="key8">0</data>
      <data key="key10">EPHB CTF</data>
      <data key="key11">Homo sapiens</data>
      <data key="key12">Reactome</data>
      <data key="key13">Rectangle</data>
      <data key="key16">P54753;P29323;P54762;P54760;O15197</data>
      <data key="key17">http://www.reactome.org/biopax/72/3928656#Protein1</data>
    </node>

   <!-- edges -->
    <edge id="" source="5" target="2">
      <data key="key3">orchid</data>
      <data key="key4">1</data>
      <data key="key9">gamma-secretase cleaves EPHB2|BiochemicalReactionImpl--&gt;EPHB CTF1|ProteinImpl</data>
      <data key="key14">p</data>
    </edge>
    <edge id="" source="5" target="4">
      <data key="key3">orchid</data>
      <data key="key4">1</data>
      <data key="key9">gamma-secretase cleaves EPHB2|BiochemicalReactionImpl--&gt;EPHB CTF2|ProteinImpl</data>
      <data key="key14">p</data>
    </edge>
    <edge id="" source="5" target="2Q">
      <data key="key3">red</data>
      <data key="key4">1</data>
    </edge>
    <edge id="" source="5" target="4Q">
      <data key="key3">red</data>
      <data key="key4">1</data>
    </edge>
    <edge id="" source="5" target="3Q">
      <data key="key3">darkred</data>
      <data key="key4">1</data>
    </edge>
    <edge id="" source="5" target="6Q">
      <data key="key3">blue</data>
      <data key="key4">-1</data>
      <data key="key9">gamma-secretase complex|ComplexImpl--&gt;gamma-secretase cleaves EPHB2|BiochemicalReactionImpl</data>
      <data key="key14">a</data>
    </edge>
    <edge id="" source="6" target="5">
      <data key="key3">mediumseagreen</data>
      <data key="key4">1</data>
      <data key="key9">EPHB CTF|ProteinImpl--&gt;gamma-secretase cleaves EPHB2|BiochemicalReactionImpl</data>
      <data key="key14">s</data>
    </edge>
    <edge id="" source="7" target="1">
      <data key="key3">orchid</data>
      <data key="key4">1</data>
      <data key="key9">assembly of PSEN|PSEN|ComplexImpl--&gt;PSEN|ComplexImpl</data>
      <data key="key14">p</data>
    </edge>
    <edge id="" source="7" target="1Q">
      <data key="key3">red</data>
      <data key="key4">1</data>
    </edge>

  </graph>
</graphml>
