<?xml version="1.0" encoding="UTF-8"?>
<graphml xmlns="http://graphml.graphdrawing.org/xmlns"
         xmlns:xsi="http://www.w3.org/2001/XMLSchema-instance"
         xsi:schemaLocation="http://graphml.graphdrawing.org/xmlns http://graphml.graphdrawing.org/xmlns/1.0/graphml.xsd">

<!-- node property keys -->

  <key id="biopaxType" for="node" attr.name="biopaxType" attr.type="string" />
  <key id="color" for="node" attr.name="color" attr.type="string" />

  <key id="description" for="node" attr.name="description" attr.type="string" />
  <key id="input" for="node" attr.name="input" attr.type="long" />

  <key id="name" for="node" attr.name="name" attr.type="string" />
  <key id="pk" for="node" attr.name="pk" attr.type="string" />
  <key id="shape" for="node" attr.name="shape" attr.type="string" />


 <key id="spaimCase" for="node" attr.name="spaimCase" attr.type="string" />
 <key id="patternTag" for="node" attr.name="patternTag" attr.type="string" />

 <key id="provider" for="node" attr.name="provider" attr.type="string" />
 <key id="evidence" for="node" attr.name="evidence" attr.type="string" />
 <key id="alias" for="node" attr.name="alias" attr.type="string" />

 <key id="uniprot" for="node" attr.name="uniprot" attr.type="string" />
 <key id="uri" for="node" attr.name="uri" attr.type="string" />
 <key id="organism" for="node" attr.name="organism" attr.type="string" />

 <key id="hgnc" for="node" attr.name="hgnc" attr.type="string" />
 <key id="chebi" for="node" attr.name="chebi" attr.type="string" />
 <key id="generic" for="node" attr.name="generic" attr.type="string" />


<!-- edge property keys -->

  <key id="interaction" for="edge" attr.name="interaction" attr.type="string" />
  <key id="spaim" for="edge" attr.name="spaim" attr.type="string" />
  <key id="debug" for="edge" attr.name="debug" attr.type="string" />


  <graph id="ephb2_biopax" edgedefault="directed" parse.nodeids="free" parse.edgeids="free" parse.order="nodesfirst">

<!-- graph properties -->

<!-- vertices -->


          
        
        <node id="1">

           <data key="biopaxType">Complex</data>
           <data key="name">PSEN</data>
           <data key="alias">Presenilin;PSEN</data>	       
           <data key="provider">Reactome</data>
           <data key="uri">http://www.reactome.org/biopax/72/3928656#Complex2</data>
           <data key="uniprot">P49810;P49768</data>
           <data key="hgnc"></data>
           <data key="chebi"></data>
           <data key="organism">Homo sapiens</data>
           <data key="color">LightGreen</data>
           <data key="input">0</data>
           <data key="shape">Octagon</data>
           <data key="spaimCase"></data>
           <data key="evidence"></data>
           <data key="generic">true</data>
        </node>

            
        
        <node id="2">

           <data key="biopaxType">Protein</data>
           <data key="name">EPHB CTF1</data>
           <data key="alias">EPHB CTF1;EPHB C-terminal fragment 1</data>	       
           <data key="provider">Reactome</data>
           <data key="uri">http://www.reactome.org/biopax/72/3928656#Protein13</data>
           <data key="uniprot">P54753;P29323;P54762;P54760;O15197</data>
           <data key="hgnc"></data>
           <data key="chebi"></data>
           <data key="organism">Homo sapiens</data>
           <data key="color">LimeGreen</data>
           <data key="input">0</data>
           <data key="shape">Rectangle</data>
           <data key="spaimCase"></data>
           <data key="evidence"></data>
           <data key="generic">true</data>
        </node>

            
        
        <node id="3">

           <data key="biopaxType">Complex</data>
           <data key="name">gamma-secretase complex</data>
           <data key="alias">gamma-secretase complex</data>	       
           <data key="provider">Reactome</data>
           <data key="uri">http://www.reactome.org/biopax/72/3928656#Complex1</data>
           <data key="uniprot">Q8WW43;Q9NZ42;P49810;Q92542;Q96BI3;P49768</data>
           <data key="hgnc"></data>
           <data key="chebi"></data>
           <data key="organism">Homo sapiens</data>
           <data key="color">LightGreen</data>
           <data key="input">0</data>
           <data key="shape">Octagon</data>
           <data key="spaimCase"></data>
           <data key="evidence"></data>
           <data key="generic">false</data>
        </node>

            
        
        <node id="4">

           <data key="biopaxType">Protein</data>
           <data key="name">EPHB CTF2</data>
           <data key="alias">EPHB C-terminal fragment 2;EPHB CTF2</data>	       
           <data key="provider">Reactome</data>
           <data key="uri">http://www.reactome.org/biopax/72/3928656#Protein7</data>
           <data key="uniprot">P54753;P29323;P54762;P54760;O15197</data>
           <data key="hgnc"></data>
           <data key="chebi"></data>
           <data key="organism">Homo sapiens</data>
           <data key="color">LimeGreen</data>
           <data key="input">0</data>
           <data key="shape">Rectangle</data>
           <data key="spaimCase"></data>
           <data key="evidence"></data>
           <data key="generic">true</data>
        </node>

            
        
        <node id="5">

           <data key="biopaxType">BiochemicalReaction</data>
           <data key="name">gamma-secretase cleaves EPHB2</data>
           <data key="alias">gamma-secretase cleaves EPHB2</data>	       
           <data key="provider">Reactome</data>
           <data key="uri">http://www.reactome.org/biopax/72/3928656#BiochemicalReaction1</data>
           <data key="uniprot"></data>
           <data key="hgnc"></data>
           <data key="chebi"></data>
           <data key="organism"></data>
           <data key="color">LightSalmon</data>
           <data key="input">0</data>
           <data key="shape">Rectangle</data>
           <data key="spaimCase">R2COMPLX</data>
           <data key="evidence"></data>
           <data key="generic">false</data>
        </node>

            
        
        <node id="6">

           <data key="biopaxType">Protein</data>
           <data key="name">EPHB CTF</data>
           <data key="alias">EPHB CTF;EPHB C-terminal fragments (CTF)</data>	       
           <data key="provider">Reactome</data>
           <data key="uri">http://www.reactome.org/biopax/72/3928656#Protein1</data>
           <data key="uniprot">P54753;P29323;P54762;P54760;O15197</data>
           <data key="hgnc"></data>
           <data key="chebi"></data>
           <data key="organism">Homo sapiens</data>
           <data key="color">LimeGreen</data>
           <data key="input">0</data>
           <data key="shape">Rectangle</data>
           <data key="spaimCase"></data>
           <data key="evidence"></data>
           <data key="generic">true</data>
        </node>

            
        
        <node id="7">

           <data key="biopaxType">ComplexAssembly</data>
           <data key="name">assembly of PSEN</data>
           <data key="alias"></data>	       
           <data key="provider"></data>
           <data key="uri"></data>
           <data key="uniprot"></data>
           <data key="hgnc"></data>
           <data key="chebi"></data>
           <data key="organism"></data>
           <data key="color">LightSalmon</data>
           <data key="input">0</data>
           <data key="shape">Rectangle</data>
           <data key="spaimCase">R3COMPLX</data>
           <data key="evidence"></data>
           <data key="generic">false</data>
        </node>

     
<!-- edges -->
                   
 

           
        <edge id=""  source="3" target="5">
          
                                                       
            <data key="spaim">a</data>
                        <data key="interaction">gamma-secretase complex|ComplexImpl--&gt;gamma-secretase cleaves EPHB2|BiochemicalReactionImpl</data>
        </edge>
	
               
        <edge id=""  source="5" target="2">
          
                                                       
            <data key="spaim">p</data>
                        <data key="interaction">gamma-secretase cleaves EPHB2|BiochemicalReactionImpl--&gt;EPHB CTF1|ProteinImpl</data>
        </edge>
	
             
        <edge id=""  source="7" target="1">
          
                                                       
            <data key="spaim">p</data>
                        <data key="interaction">assembly of PSEN|PSEN|ComplexImpl--&gt;PSEN|ComplexImpl</data>
        </edge>
	
             
        <edge id=""  source="5" target="4">
          
                                                       
            <data key="spaim">p</data>
                        <data key="interaction">gamma-secretase cleaves EPHB2|BiochemicalReactionImpl--&gt;EPHB CTF2|ProteinImpl</data>
        </edge>
	
             
        <edge id=""  source="6" target="5">
          
                                                       
            <data key="spaim">s</data>
                        <data key="interaction">EPHB CTF|ProteinImpl--&gt;gamma-secretase cleaves EPHB2|BiochemicalReactionImpl</data>
        </edge>
	
  
 



    </graph>
</graphml>

